^E:\CYTOAPPGITREPO\SOURCE\PROBECASEVIEWMODULE\JPEGLS\STDAFX.CPP
/c /AI"C:\PROGRAM FILES (X86)\REFERENCE ASSEMBLIES\MICROSOFT\FRAMEWORK\.NETFRAMEWORK\V4.0" /AI"C:\PROGRAM FILES (X86)\WINDOWS KITS\8.1\REFERENCES\COMMONCONFIGURATION\NEUTRAL" /Zi /clr /nologo /W4 /WX- /O2 /Oy- /GL /D WIN32 /D NDEBUG /D _WINDLL /D _MBCS /EHa /MD /GS /fp:precise /Zc:wchar_t /Zc:forScope /Zc:inline /Yc"stdafx.h" /Fp"DEBUG\JPEGLS.PCH" /Fo"DEBUG\\" /Fd"DEBUG\VC140.PDB" /TP /FU"C:\PROGRAM FILES (X86)\REFERENCE ASSEMBLIES\MICROSOFT\FRAMEWORK\.NETFRAMEWORK\V4.0\MSCORLIB.DLL" /FU"C:\PROGRAM FILES (X86)\REFERENCE ASSEMBLIES\MICROSOFT\FRAMEWORK\.NETFRAMEWORK\V4.0\SYSTEM.DATA.DLL" /FU"C:\PROGRAM FILES (X86)\REFERENCE ASSEMBLIES\MICROSOFT\FRAMEWORK\.NETFRAMEWORK\V4.0\SYSTEM.DLL" /FU"C:\PROGRAM FILES (X86)\REFERENCE ASSEMBLIES\MICROSOFT\FRAMEWORK\.NETFRAMEWORK\V4.0\SYSTEM.XML.DLL" /analyze- /clr:nostdlib  E:\CYTOAPPGITREPO\SOURCE\PROBECASEVIEWMODULE\JPEGLS\STDAFX.CPP
^E:\CYTOAPPGITREPO\SOURCE\PROBECASEVIEWMODULE\JPEGLS\ASSEMBLYINFO.CPP
/c /AI"C:\PROGRAM FILES (X86)\REFERENCE ASSEMBLIES\MICROSOFT\FRAMEWORK\.NETFRAMEWORK\V4.0" /AI"C:\PROGRAM FILES (X86)\WINDOWS KITS\8.1\REFERENCES\COMMONCONFIGURATION\NEUTRAL" /Zi /clr /nologo /W4 /WX- /O2 /Oy- /GL /D WIN32 /D NDEBUG /D _WINDLL /D _MBCS /EHa /MD /GS /fp:precise /Zc:wchar_t /Zc:forScope /Zc:inline /Yu"stdafx.h" /Fp"DEBUG\JPEGLS.PCH" /Fo"DEBUG\\" /Fd"DEBUG\VC140.PDB" /TP /FU"C:\PROGRAM FILES (X86)\REFERENCE ASSEMBLIES\MICROSOFT\FRAMEWORK\.NETFRAMEWORK\V4.0\MSCORLIB.DLL" /FU"C:\PROGRAM FILES (X86)\REFERENCE ASSEMBLIES\MICROSOFT\FRAMEWORK\.NETFRAMEWORK\V4.0\SYSTEM.DATA.DLL" /FU"C:\PROGRAM FILES (X86)\REFERENCE ASSEMBLIES\MICROSOFT\FRAMEWORK\.NETFRAMEWORK\V4.0\SYSTEM.DLL" /FU"C:\PROGRAM FILES (X86)\REFERENCE ASSEMBLIES\MICROSOFT\FRAMEWORK\.NETFRAMEWORK\V4.0\SYSTEM.XML.DLL" /analyze- /clr:nostdlib  E:\CYTOAPPGITREPO\SOURCE\PROBECASEVIEWMODULE\JPEGLS\ASSEMBLYINFO.CPP
^E:\CYTOAPPGITREPO\SOURCE\PROBECASEVIEWMODULE\JPEGLS\HEADER.CPP
/c /AI"C:\PROGRAM FILES (X86)\REFERENCE ASSEMBLIES\MICROSOFT\FRAMEWORK\.NETFRAMEWORK\V4.0" /AI"C:\PROGRAM FILES (X86)\WINDOWS KITS\8.1\REFERENCES\COMMONCONFIGURATION\NEUTRAL" /Zi /clr /nologo /W4 /WX- /O2 /Oy- /GL /D WIN32 /D NDEBUG /D _WINDLL /D _MBCS /EHa /MD /GS /fp:precise /Zc:wchar_t /Zc:forScope /Zc:inline /Yu"stdafx.h" /Fp"DEBUG\JPEGLS.PCH" /Fo"DEBUG\\" /Fd"DEBUG\VC140.PDB" /TP /FU"C:\PROGRAM FILES (X86)\REFERENCE ASSEMBLIES\MICROSOFT\FRAMEWORK\.NETFRAMEWORK\V4.0\MSCORLIB.DLL" /FU"C:\PROGRAM FILES (X86)\REFERENCE ASSEMBLIES\MICROSOFT\FRAMEWORK\.NETFRAMEWORK\V4.0\SYSTEM.DATA.DLL" /FU"C:\PROGRAM FILES (X86)\REFERENCE ASSEMBLIES\MICROSOFT\FRAMEWORK\.NETFRAMEWORK\V4.0\SYSTEM.DLL" /FU"C:\PROGRAM FILES (X86)\REFERENCE ASSEMBLIES\MICROSOFT\FRAMEWORK\.NETFRAMEWORK\V4.0\SYSTEM.XML.DLL" /analyze- /clr:nostdlib  E:\CYTOAPPGITREPO\SOURCE\PROBECASEVIEWMODULE\JPEGLS\HEADER.CPP
^E:\CYTOAPPGITREPO\SOURCE\PROBECASEVIEWMODULE\JPEGLS\INTERFACE.CPP
/c /AI"C:\PROGRAM FILES (X86)\REFERENCE ASSEMBLIES\MICROSOFT\FRAMEWORK\.NETFRAMEWORK\V4.0" /AI"C:\PROGRAM FILES (X86)\WINDOWS KITS\8.1\REFERENCES\COMMONCONFIGURATION\NEUTRAL" /Zi /clr /nologo /W4 /WX- /O2 /Oy- /GL /D WIN32 /D NDEBUG /D _WINDLL /D _MBCS /EHa /MD /GS /fp:precise /Zc:wchar_t /Zc:forScope /Zc:inline /Yu"stdafx.h" /Fp"DEBUG\JPEGLS.PCH" /Fo"DEBUG\\" /Fd"DEBUG\VC140.PDB" /TP /FU"C:\PROGRAM FILES (X86)\REFERENCE ASSEMBLIES\MICROSOFT\FRAMEWORK\.NETFRAMEWORK\V4.0\MSCORLIB.DLL" /FU"C:\PROGRAM FILES (X86)\REFERENCE ASSEMBLIES\MICROSOFT\FRAMEWORK\.NETFRAMEWORK\V4.0\SYSTEM.DATA.DLL" /FU"C:\PROGRAM FILES (X86)\REFERENCE ASSEMBLIES\MICROSOFT\FRAMEWORK\.NETFRAMEWORK\V4.0\SYSTEM.DLL" /FU"C:\PROGRAM FILES (X86)\REFERENCE ASSEMBLIES\MICROSOFT\FRAMEWORK\.NETFRAMEWORK\V4.0\SYSTEM.XML.DLL" /analyze- /clr:nostdlib  E:\CYTOAPPGITREPO\SOURCE\PROBECASEVIEWMODULE\JPEGLS\INTERFACE.CPP
^E:\CYTOAPPGITREPO\SOURCE\PROBECASEVIEWMODULE\JPEGLS\JPEGLS.CPP
/c /AI"C:\PROGRAM FILES (X86)\REFERENCE ASSEMBLIES\MICROSOFT\FRAMEWORK\.NETFRAMEWORK\V4.0" /AI"C:\PROGRAM FILES (X86)\WINDOWS KITS\8.1\REFERENCES\COMMONCONFIGURATION\NEUTRAL" /Zi /clr /nologo /W4 /WX- /O2 /Oy- /GL /D WIN32 /D NDEBUG /D _WINDLL /D _MBCS /EHa /MD /GS /fp:precise /Zc:wchar_t /Zc:forScope /Zc:inline /Yu"stdafx.h" /Fp"DEBUG\JPEGLS.PCH" /Fo"DEBUG\\" /Fd"DEBUG\VC140.PDB" /TP /FU"C:\PROGRAM FILES (X86)\REFERENCE ASSEMBLIES\MICROSOFT\FRAMEWORK\.NETFRAMEWORK\V4.0\MSCORLIB.DLL" /FU"C:\PROGRAM FILES (X86)\REFERENCE ASSEMBLIES\MICROSOFT\FRAMEWORK\.NETFRAMEWORK\V4.0\SYSTEM.DATA.DLL" /FU"C:\PROGRAM FILES (X86)\REFERENCE ASSEMBLIES\MICROSOFT\FRAMEWORK\.NETFRAMEWORK\V4.0\SYSTEM.DLL" /FU"C:\PROGRAM FILES (X86)\REFERENCE ASSEMBLIES\MICROSOFT\FRAMEWORK\.NETFRAMEWORK\V4.0\SYSTEM.XML.DLL" /analyze- /clr:nostdlib  E:\CYTOAPPGITREPO\SOURCE\PROBECASEVIEWMODULE\JPEGLS\JPEGLS.CPP
^E:\CYTOAPPGITREPO\SOURCE\PROBECASEVIEWMODULE\JPEGLS\MANAGEDCOMPRESSOR.CPP
/c /AI"C:\PROGRAM FILES (X86)\REFERENCE ASSEMBLIES\MICROSOFT\FRAMEWORK\.NETFRAMEWORK\V4.0" /AI"C:\PROGRAM FILES (X86)\WINDOWS KITS\8.1\REFERENCES\COMMONCONFIGURATION\NEUTRAL" /Zi /clr /nologo /W4 /WX- /O2 /Oy- /GL /D WIN32 /D NDEBUG /D _WINDLL /D _MBCS /EHa /MD /GS /fp:precise /Zc:wchar_t /Zc:forScope /Zc:inline /Yu"stdafx.h" /Fp"DEBUG\JPEGLS.PCH" /Fo"DEBUG\\" /Fd"DEBUG\VC140.PDB" /TP /FU"C:\PROGRAM FILES (X86)\REFERENCE ASSEMBLIES\MICROSOFT\FRAMEWORK\.NETFRAMEWORK\V4.0\MSCORLIB.DLL" /FU"C:\PROGRAM FILES (X86)\REFERENCE ASSEMBLIES\MICROSOFT\FRAMEWORK\.NETFRAMEWORK\V4.0\SYSTEM.DATA.DLL" /FU"C:\PROGRAM FILES (X86)\REFERENCE ASSEMBLIES\MICROSOFT\FRAMEWORK\.NETFRAMEWORK\V4.0\SYSTEM.DLL" /FU"C:\PROGRAM FILES (X86)\REFERENCE ASSEMBLIES\MICROSOFT\FRAMEWORK\.NETFRAMEWORK\V4.0\SYSTEM.XML.DLL" /analyze- /clr:nostdlib  E:\CYTOAPPGITREPO\SOURCE\PROBECASEVIEWMODULE\JPEGLS\MANAGEDCOMPRESSOR.CPP
^C:\USERS\SBHAT\APPDATA\LOCAL\TEMP\.NETFRAMEWORK,VERSION=V4.0.ASSEMBLYATTRIBUTES.CPP
/c /Zi /clr /nologo /W4 /WX- /O2 /Oy- /GL /D WIN32 /D NDEBUG /D _WINDLL /D _MBCS /EHa /MD /GS /fp:precise /Zc:wchar_t /Zc:forScope /Zc:inline /Fp"DEBUG\JPEGLS.PCH" /Fa"DEBUG\\" /Fo"DEBUG\\" /Fd"DEBUG\VC140.PDB" /analyze- C:\USERS\SBHAT\APPDATA\LOCAL\TEMP\.NETFRAMEWORK,VERSION=V4.0.ASSEMBLYATTRIBUTES.CPP
