^E:\CYTOAPPGITREPO\SOURCE\PROBECASEVIEWMODULE\JPEGLS\X64\RELEASE\.NETFRAMEWORK,VERSION=V4.0.ASSEMBLYATTRIBUTES.OBJ|E:\CYTOAPPGITREPO\SOURCE\PROBECASEVIEWMODULE\JPEGLS\X64\RELEASE\ASSEMBLYINFO.OBJ|E:\CYTOAPPGITREPO\SOURCE\PROBECASEVIEWMODULE\JPEGLS\X64\RELEASE\HEADER.OBJ|E:\CYTOAPPGITREPO\SOURCE\PROBECASEVIEWMODULE\JPEGLS\X64\RELEASE\INTERFACE.OBJ|E:\CYTOAPPGITREPO\SOURCE\PROBECASEVIEWMODULE\JPEGLS\X64\RELEASE\JPEGLS.OBJ|E:\CYTOAPPGITREPO\SOURCE\PROBECASEVIEWMODULE\JPEGLS\X64\RELEASE\MANAGEDCOMPRESSOR.OBJ|E:\CYTOAPPGITREPO\SOURCE\PROBECASEVIEWMODULE\JPEGLS\X64\RELEASE\SOURCE.OBJ|E:\CYTOAPPGITREPO\SOURCE\PROBECASEVIEWMODULE\JPEGLS\X64\RELEASE\STDAFX.OBJ
C:\PROGRAM FILES (X86)\MICROSOFT VISUAL STUDIO 14.0\VC\BIN\X86_AMD64\VCTIP.EXE
C:\WINDOWS\SYSTEM32\TZRES.DLL
C:\WINDOWS\GLOBALIZATION\SORTING\SORTDEFAULT.NLS
E:\CYTOAPPGITREPO\SOURCE\PROBECASEVIEWMODULE\JPEGLS\X64\RELEASE\ASSEMBLYINFO.OBJ
E:\CYTOAPPGITREPO\SOURCE\PROBECASEVIEWMODULE\JPEGLS\X64\RELEASE\HEADER.OBJ
E:\CYTOAPPGITREPO\SOURCE\PROBECASEVIEWMODULE\JPEGLS\X64\RELEASE\INTERFACE.OBJ
E:\CYTOAPPGITREPO\SOURCE\PROBECASEVIEWMODULE\JPEGLS\X64\RELEASE\JPEGLS.OBJ
E:\CYTOAPPGITREPO\SOURCE\PROBECASEVIEWMODULE\JPEGLS\X64\RELEASE\MANAGEDCOMPRESSOR.OBJ
E:\CYTOAPPGITREPO\SOURCE\PROBECASEVIEWMODULE\JPEGLS\X64\RELEASE\SOURCE.OBJ
E:\CYTOAPPGITREPO\SOURCE\PROBECASEVIEWMODULE\JPEGLS\X64\RELEASE\STDAFX.OBJ
E:\CYTOAPPGITREPO\SOURCE\PROBECASEVIEWMODULE\JPEGLS\X64\RELEASE\.NETFRAMEWORK,VERSION=V4.0.ASSEMBLYATTRIBUTES.OBJ
C:\PROGRAM FILES (X86)\MICROSOFT VISUAL STUDIO 14.0\VC\LIB\AMD64\MSVCRT.LIB
C:\PROGRAM FILES (X86)\MICROSOFT VISUAL STUDIO 14.0\VC\LIB\AMD64\OLDNAMES.LIB
C:\PROGRAM FILES (X86)\MICROSOFT VISUAL STUDIO 14.0\VC\LIB\AMD64\MSVCMRT.LIB
C:\PROGRAM FILES (X86)\WINDOWS KITS\8.1\LIB\WINV6.3\UM\X64\MSCOREE.LIB
C:\PROGRAM FILES (X86)\MICROSOFT VISUAL STUDIO 14.0\VC\LIB\AMD64\MSVCPRT.LIB
C:\PROGRAM FILES (X86)\WINDOWS KITS\8.1\LIB\WINV6.3\UM\X64\KERNEL32.LIB
C:\PROGRAM FILES (X86)\MICROSOFT VISUAL STUDIO 14.0\VC\LIB\AMD64\VCRUNTIME.LIB
C:\PROGRAM FILES (X86)\WINDOWS KITS\10\LIB\10.0.10240.0\UCRT\X64\UCRT.LIB
C:\PROGRAM FILES (X86)\WINDOWS KITS\8.1\LIB\WINV6.3\UM\X64\UUID.LIB
C:\PROGRAM FILES (X86)\MICROSOFT VISUAL STUDIO 14.0\VC\BIN\X86_AMD64\1033\LINKUI.DLL
C:\WINDOWS\MICROSOFT.NET\FRAMEWORK\V2.0.50727\MSCORWKS.DLL
C:\WINDOWS\MICROSOFT.NET\FRAMEWORK\V4.0.30319\CLR.DLL
C:\PROGRAM FILES (X86)\MICROSOFT VISUAL STUDIO 14.0\VC\BIN\X86_AMD64\LINK.EXE.CONFIG
C:\PROGRAM FILES (X86)\WINDOWS KITS\8.1\BIN\X86\RC.EXE
C:\PROGRAM FILES (X86)\MICROSOFT VISUAL STUDIO 14.0\VC\BIN\CVTRES.EXE
C:\PROGRAM FILES (X86)\MICROSOFT VISUAL STUDIO 14.0\VC\BIN\MSPDBSRV.EXE
C:\PROGRAM FILES (X86)\MICROSOFT VISUAL STUDIO 14.0\VC\BIN\X86_AMD64\C2.DLL
C:\WINDOWS\SYSTEM32\RSAENH.DLL
