^E:\CYTOAPPGITREPO\CASEBROWSER\RENDERER\JPEGLS\RELEASE\.NETFRAMEWORK,VERSION=V4.0.ASSEMBLYATTRIBUTES.OBJ|E:\CYTOAPPGITREPO\CASEBROWSER\RENDERER\JPEGLS\RELEASE\ASSEMBLYINFO.OBJ|E:\CYTOAPPGITREPO\CASEBROWSER\RENDERER\JPEGLS\RELEASE\HEADER.OBJ|E:\CYTOAPPGITREPO\CASEBROWSER\RENDERER\JPEGLS\RELEASE\INTERFACE.OBJ|E:\CYTOAPPGITREPO\CASEBROWSER\RENDERER\JPEGLS\RELEASE\JPEGLS.OBJ|E:\CYTOAPPGITREPO\CASEBROWSER\RENDERER\JPEGLS\RELEASE\MANAGEDCOMPRESSOR.OBJ|E:\CYTOAPPGITREPO\CASEBROWSER\RENDERER\JPEGLS\RELEASE\STDAFX.OBJ
E:\CYTOAPPGITREPO\BUILDOUTPUT\RELEASE\JPEGLS.DLL
E:\CYTOAPPGITREPO\BUILDOUTPUT\RELEASE\JPEGLS.PDB
