e:\cytoappgitrepo\source\probecaseviewmodule\jpegls\x64\release\vc140.pdb
e:\cytoappgitrepo\source\probecaseviewmodule\jpegls\x64\release\stdafx.obj
e:\cytoappgitrepo\source\probecaseviewmodule\jpegls\x64\release\source.obj
e:\cytoappgitrepo\source\probecaseviewmodule\jpegls\x64\release\managedcompressor.obj
e:\cytoappgitrepo\source\probecaseviewmodule\jpegls\x64\release\jpegls.obj
e:\cytoappgitrepo\source\probecaseviewmodule\jpegls\x64\release\interface.obj
e:\cytoappgitrepo\source\probecaseviewmodule\jpegls\x64\release\header.obj
e:\cytoappgitrepo\source\probecaseviewmodule\jpegls\x64\release\assemblyinfo.obj
e:\cytoappgitrepo\source\probecaseviewmodule\jpegls\x64\release\.netframework,version=v4.0.assemblyattributes.obj
e:\cytoappgitrepo\source\probecaseviewmodule\jpegls\x64\release\.netframework,version=v4.0.assemblyattributes.asm
e:\cytoappgitrepo\buildoutput\release\jpegls.dll
e:\cytoappgitrepo\buildoutput\release\jpegls.pdb
e:\cytoappgitrepo\source\probecaseviewmodule\jpegls\x64\release\jpegls64.vcxprojresolveassemblyreference.cache
e:\cytoappgitrepo\source\probecaseviewmodule\jpegls\..\..\..\buildoutput\release\jpegls.dll
e:\cytoappgitrepo\source\probecaseviewmodule\jpegls\x64\release\jpegls.tlog\cl.command.1.tlog
e:\cytoappgitrepo\source\probecaseviewmodule\jpegls\x64\release\jpegls.tlog\cl.read.1.tlog
e:\cytoappgitrepo\source\probecaseviewmodule\jpegls\x64\release\jpegls.tlog\cl.write.1.tlog
e:\cytoappgitrepo\source\probecaseviewmodule\jpegls\x64\release\jpegls.tlog\link.command.1.tlog
e:\cytoappgitrepo\source\probecaseviewmodule\jpegls\x64\release\jpegls.tlog\link.read.1.tlog
e:\cytoappgitrepo\source\probecaseviewmodule\jpegls\x64\release\jpegls.tlog\link.write.1.tlog
e:\cytoappgitrepo\source\probecaseviewmodule\jpegls\x64\release\jpegls.tlog\metagen.read.1.tlog
e:\cytoappgitrepo\source\probecaseviewmodule\jpegls\x64\release\jpegls.tlog\metagen.write.1.tlog
e:\cytoappgitrepo\source\probecaseviewmodule\jpegls\x64\release\jpegls.tlog\rsaenh.dll.bi
e:\cytoappgitrepo\source\probecaseviewmodule\jpegls\x64\release\jpegls.tlog\tzres.dll.bi
